%YAML 1.1
%TAG !u! tag:unity3d.com,2011:
--- !u!1045 &1
EditorBuildSettings:
  m_ObjectHideFlags: 0
  serializedVersion: 2
  m_Scenes:
  - enabled: 1
    path: Assets/2DGamekit/Scenes/Start.unity
    guid: 57df1e417250bc247976c2c0dc088efe
  - enabled: 1
    path: Assets/2DGamekit/Scenes/Zone1.unity
    guid: a94cb8f134bf81349ad016c79b629e3d
  - enabled: 1
    path: Assets/2DGamekit/Scenes/Zone2.unity
    guid: 5436c67e9267f17458b31fcdc20cd20a
  - enabled: 1
    path: Assets/2DGamekit/Scenes/Zone3.unity
    guid: 4b4b0e246fc7dbb4295a38fd03241362
  - enabled: 1
    path: Assets/2DGamekit/Scenes/Zone4.unity
    guid: 5b0c2d9ddd151ba489db19a4fb634327
  - enabled: 1
    path: Assets/2DGamekit/Scenes/Zone5.unity
    guid: 960b12f881940d84983273421bebc695
  m_configObjects: {}
